"Wrk. Ld."	"Course Code"	"# of Stds."			
1	"9084"	"M.Tariq Yousafzai"	"Assistant Professor"	"12"	
"MG316"	"Project Management"	"3"	"CS15-B"	"21"	"BS(CS)"
"MG414"	"Entrepreneurship"	"3"	"EE15B"	"42"	"BS(EE)"
"MG414"	"Entrepreneurship"	"3"	"EE15A"	"44"	"BS(EE)"
"MG316"	"Project Management"	"3"	"CS15-A"	"27"	"BS(CS)"
					
2	"5450"	"Obaidullah Khan"	"Lecturer"	"9"	
"MG223"	"Fundamentals of Management"	"3"	"CS17-C"	"19"	"BS(CS)"
"MG223"	"Fundamentals of Management"	"3"	"CS17-B"	"33"	"BS(CS)"
"MG223"	"Fundamentals of Management"	"3"	"CS17-A"	"42"	"BS(CS)"
					
0	"00"	"Asad Khan"	"Research Fellow"	"3"	
"CS406"	"Web Programming"	"3"	"CS15-A"	"23"	"BS(CS)"
					
1	"9237"	"Omar Usman Khan"	"Associate Professor"	"6"	
"CS629"	"Network and Graph Theory"	"3"	"MSCS17"	"7"	"MS(CS),PhD(CS)"
"DS501"	"Stat. and Math. Methods in Data Science"	"3"	"MSDS-A"	"8"	"MS(DS),PhD(CS)"
					
2	"3704"	"Fazl-e-Basit"	"Assistant Professor"	"12"	
"CS505"	"Advanced Operating Systems"	"3"	"MSCS"	"4"	"MS(CS)"
"CS201"	"Data Structures"	"3"	"CS17-B"	"27"	"BS(CS)"
"CS201"	"Data Structures"	"3"	"CS17-A"	"20"	"BS(CS)"
"CS319"	"Applied Programming"	"3"	"MSDS-A"	"11"	"MS(DS)"
					
3	"9315"	"Hafeez Ur Rehman"	"Assistant Professor"	"9"	
"CS508"	"Bio-Informatics"	"3"	"MSCS17"	"13"	"MS(CS),PhD(CS)"
"EE402"	"Digital Image Processing"	"3"	"CS16-A"	"25"	"BS(CS)"
"CS460"	"Introduction to Bioinformatics"	"3"	"CS15-A"	"39"	"BS(CS)"
					
4	"9343"	"Mohammad Tehseen Khan"	"Assistant Professor"	"9"	
"EE227"	"Digital Logic Design"	"3"	"CS-A"	"30"	"BS(CS)"
"EE213"	"Comp. Organization and Assembly Lang."	"3"	"CS17B"	"33"	"BS(CS)"
"EE213"	"Comp. Organization and Assembly Lang."	"3"	"CS17A"	"33"	"BS(CS)"
					
5	"4564"	"Muhammad Amin"	"Assistant Professor"	"9"	
"EE502"	"Advanced Computer Architecture"	"3"	"MSCS"	"4"	"MS(CS)"
"CS449"	"Professional Issues in IT"	"3"	"CS14-A"	"8"	"BS(CS)"
"EE204"	"Computer Architecture"	"3"	"CS15-A"	"52"	"BS(CS)"
					
6	"9483"	"Muhammad Nauman"	"Assistant Professor"	"12"	
"CS118"	"Programming Fundamentals"	"3"	"CS18-B"	"29"	"BS(CS)"
"CS101"	"Introduction to Computing"	"3"	"CS-R"	"16"	"BS(CS)"
"CS118"	"Programming Fundamentals"	"3"	"CS18-A"	"34"	"BS(CS)"
"CS118"	"Programming Fundamentals"	"3"	"CS18-C"	"36"	"BS(CS)"
					
7	"9348"	"Muhammad Taimoor Khan"	"Assistant Professor"	"9"	
"CS309"	"Object Oriented Analysis and Design"	"3"	"CS16-B"	"39"	"BS(CS)"
"CS309"	"Object Oriented Analysis and Design"	"3"	"CS16-A"	"21"	"BS(CS)"
"CS567"	"Information Retrieval and Text Mining"	"3"	"MSDS-A"	"9"	"MS(DS),PhD(CS)"
					
8	"9482"	"Nouman Azam"	"Assistant Professor"	"9"	
"CS211"	"Discrete Structures"	"3"	"CS17-A"	"32"	"BS(CS)"
"CS211"	"Discrete Structures"	"3"	"CS17-C"	"30"	"BS(CS)"
"CS211"	"Discrete Structures"	"3"	"CS17-B"	"37"	"BS(CS)"
					
9	"4751"	"Shakir Ullah Shah"	"Assistant Professor"	"6"	
"CS507"	"Theory of Programming Languages"	"3"	"MSCS"	"5"	"MS(CS)"
"CS301"	"Theory of Automata"	"3"	"CS16-A"	"48"	"BS(CS)"
					
10	"3692"	"Shoaib Muhammad Khan"	"Assistant Professor"	"12"	
"CS103"	"Computer Programming"	"3"	"CS17-A"	"33"	"BS(CS)"
"CS429"	"Data Mining"	"3"	"CS16-B"	"27"	"BS(CS)"
"CS531"	"Machine Learning"	"3"	"CS15-A"	"3"	"BS(CS)"
"CS429"	"Data Mining"	"3"	"CS16-A"	"29"	"BS(CS)"
					
11	"5200"	"Usman Habib"	"Assistant Professor"	"9"	
"CS307"	"Computer Networks"	"3"	"CS16-B"	"39"	"BS(CS)"
"CS307"	"Computer Networks"	"3"	"CS16-A"	"20"	"BS(CS)"
"DS500"	"Data Science Tools and Technique"	"3"	"MSDS-A"	"15"	"BS(CS),MS(CS),MS(DS),PhD(CS)"
					
12	"9481"	"Muhammad Waqas"	"Lecturer"	"12"	
"EE117"	"Applied Physics"	"3"	"CS18-A"	"32"	"BS(CS)"
"EE117"	"Applied Physics"	"3"	"CS18-C"	"37"	"BS(CS)"
"EE182"	"Basic Electronics"	"3"	"CS-R"	"6"	"BS(CS)"
"EE117"	"Applied Physics"	"3"	"CS18-B"	"30"	"BS(CS)"
					
13	"4282"	"Kaleem Nawaz Khan"	"Lab Instructor"	"15"	
"CL117"	"Intro to Info. and Comm. Technologies"	"1"	"CS18-A"	"34"	"BS(CS)"
"CL307"	"Computer Networks Lab"	"1"	"CS16-A"	"20"	"BS(CS)"
"CL117"	"Intro to Info. and Comm. Technologies"	"1"	"CS18-B"	"29"	"BS(CS)"
"CL117"	"Intro to Info. and Comm. Technologies"	"1"	"CS18-C"	"36"	"BS(CS)"
"CL307"	"Computer Networks Lab"	"1"	"CS16-B"	"39"	"BS(CS)"
					
14	"1527"	"Muhammad Yousaf"	"Lab Instructor"	"9"	
"EL213"	"Comp. Organization and Assembly Lang. Lab"	"1"	"CS17B"	"37"	"BS(CS)"
"CL103"	"Computer Programming Lab"	"1"	"CS17-A"	"34"	"BS(CS)"
"EL213"	"Comp. Organization and Assembly Lang. Lab"	"1"	"CS17A"	"27"	"BS(CS)"
					
15	"5533"	"Safia Fatima"	"Lab Instructor"	"12"	
"CL118"	"Programming Fundamentals - Lab"	"1"	"CS18-A"	"35"	"BS(CS)"
"CL118"	"Programming Fundamentals - Lab"	"1"	"CS18-B"	"29"	"BS(CS)"
"CL118"	"Programming Fundamentals - Lab"	"1"	"CS18-C"	"36"	"BS(CS)"
"CL101"	"Introduction to Computing Lab"	"1"	"CS-R"	"16"	"BS(CS)"
					
16	"4918"	"Waqas Ali"	"Lab Instructor"	"9"	
"CL309"	"Object Oriented Analysis and Design Lab"	"1"	"CS16-A"	"23"	"BS(CS)"
"EL227"	"Digital Logic Design - Lab"	"1"	"CS-A"	"33"	"BS(CS)"
"CL309"	"Object Oriented Analysis and Design Lab"	"1"	"CS16-B"	"37"	"BS(CS)"
					
1	"4848"	"Muhammad Tariq"	"Associate Professor"	"3"	
"EE317"	"Data Communication and Networks"	"3"	"EE16A"	"27"	"BS(EE)"
					
2	"3733"	"Ahmad Saeed Qazi"	"Assistant Professor"	"9"	
"EE225"	"Electronic Devices and Circuits"	"3"	"EE17A"	"25"	"BS(EE)"
"EE225"	"Electronic Devices and Circuits"	"3"	"EE17-B"	"26"	"BS(EE)"
"EE305"	"Electromagnetic Theory"	"3"	"EE16B"	"18"	"BS(EE)"
					
3	"5271"	"Ajmal Farooq"	"Assistant Professor"	"9"	
"EE324"	"Power Electronics"	"3"	"EE15A"	"46"	"BS(EE)"
"EE324"	"Power Electronics"	"3"	"EE15B"	"22"	"BS(EE)"
"EE529"	"Power System Modeling and Analysis"	"3"	"MSEE"	"10"	"MS(EE),PhD(EE)"
					
4	"4898"	"Fazal Muhammad Ali Khan"	"Assistant Professor"	"9"	
"EL317"	"Data Communication and Networks Lab"	"1"	"EE16A"	"32"	"BS(EE)"
"EE403"	"Wireless and Mobile Comm."	"3"	"EE15C"	"14"	"BS(EE)"
"EL317"	"Data Communication and Networks Lab"	"1"	"EE16B"	"22"	"BS(EE)"
					
5	"5475"	"Fiaz Ahmad"	"Assistant Professor"	"9"	
"EE426"	"Industrial Processes Control"	"3"	"EE15-A"	"38"	"BS(EE)"
"EE554"	"Engineering Optimization"	"3"	"MSEE"	"12"	"MS(EE),PhD(EE)"
"EE426"	"Industrial Processes Control"	"3"	"EE15B"	"21"	"BS(EE)"
					
6	"3953"	"M. Asif Khan"	"Assistant Professor"	"9"	
"EE228"	"Electrical Network Analysis"	"3"	"EE17-A"	"26"	"BS(EE)"
"EE115"	"Linear Circuit Analysis"	"3"	"EE-R"	"9"	"BS(EE)"
"EE228"	"Electrical Network Analysis"	"3"	"EE17B"	"25"	"BS(EE)"
					
7	"4800"	"Maqsood Muhammad Khan"	"Assistant Professor"	"9"	
"EE303"	"µP Interfacing and Programming"	"3"	"EE16A"	"33"	"BS(EE)"
"EE302"	"Digital Signal Processing"	"3"	"EE-R"	"16"	"BS(EE)"
"EE303"	"µP Interfacing and Programming"	"3"	"EE16B"	"23"	"BS(EE)"
					
8	"4980"	"Mohsin Kamal"	"Assistant Professor"	"10"	
"EE116"	"Introduction to Computing"	"2"	"EE18-A"	"20"	"BS(EE)"
"EE116"	"Introduction to Computing"	"2"	"EE18-B"	"34"	"BS(EE)"
"EL116"	"Introduction to Computing - Lab"	"1"	"EE18-A"	"20"	"BS(EE)"
"EL116"	"Introduction to Computing - Lab"	"1"	"EE18-B"	"34"	"BS(EE)"
					
9	"4981"	"Muhammad Ibrahim"	"Assistant Professor"	"9"	
"EL320"	"Digital Design Lab"	"1"	"EE-R"	"10"	"BS(CS),BS(EE)"
"EE320"	"Digital Design"	"3"	"EE-R"	"10"	"BS(CS),BS(EE)"
"ME102"	"Engineering Drawing"	"1"	"EE18-A"	"23"	"BS(EE)"
					
10	"4848"	"Muhammad Tariq"	"Assistant Professor"	"3"	
"CS524"	"Advanced Computer Networks"	"3"	"MSEE"	"7"	"MS(EE),PhD(EE)"
					
11	"4501"	"Rahat Ehsan"	"Assistant Professor"	"6"	
"CS210"	"Data Structures and Algorithms"	"3"	"EE17-A"	"33"	"BS(EE)"
"CS210"	"Data Structures and Algorithms"	"3"	"EE17B"	"34"	"BS(EE)"
					
12	"5611"	"Salman khan"	"Assistant Professor"	"9"	
"EE305"	"Electromagnetic Theory"	"3"	"EE16A"	"35"	"BS(EE)"
"EE317"	"Data Communication and Networks"	"3"	"EE16B"	"25"	"BS(EE)"
"EL302"	"Digital Signal Processing Lab"	"1"	"EE-R"	"15"	"BS(EE)"
					
13		"Shibli Nisar"	"Assistant Professor"	"3"	
"EE545"	"Advanced Probability Theory"	"3"	"PHD(EE)"	"10"	"MS(EE),PhD(EE)"
					
14	"4815"	"Suleman Mir"	"Assistant Professor"	"9"	
"EE323"	"Analogue and Digital Communication"	"3"	"EE16B"	"18"	"BS(EE)"
"EE407"	"Wave Prop. and Antenna Th."	"3"	"EE15C"	"12"	"BS(EE)"
"EE323"	"Analogue and Digital Communication"	"3"	"EE16-A"	"31"	"BS(EE)"
					
15	"3685"	"Mohsin Shah"	"Lecturer"	"12"	
"EL324"	"Power Electronics - Lab"	"1"	"EL15A1"	"20"	"BS(EE)"
"ME102"	"Engineering Drawing"	"1"	"EE18-B"	"36"	"BS(EE)"
"EL324"	"Power Electronics - Lab"	"1"	"EL15A2"	"24"	"BS(EE)"
"EL324"	"Power Electronics - Lab"	"1"	"EL15B1"	"23"	"BS(EE)"
					
16	"500119"	"Muhammad Adnan"	"Lecturer"	"3"	
"EL403"	"Wireless and Mobile Comm. Lab"	"1"	"EE15C"	"14"	"BS(EE)"
					
17	"3705"	"Muhammad Kamil"	"Lecturer"	"12"	
"EL228"	"Electrical Network Analysis Lab"	"1"	"EE17-A2"	"9"	"BS(EE)"
"EL228"	"Electrical Network Analysis Lab"	"1"	"EE17-B2"	"11"	"BS(EE)"
"EL228"	"Electrical Network Analysis Lab"	"1"	"EE17-A1"	"16"	"BS(EE)"
"EL228"	"Electrical Network Analysis Lab"	"1"	"EE17-B1"	"15"	"BS(EE)"
					
18	"9178"	"Kashif Javed"	"Lab Engineer"	"12"	
"EL323"	"Analogue and Digital Communication - Lab"	"1"	"EE16B2"	"14"	"BS(EE)"
"EL323"	"Analogue and Digital Communication - Lab"	"1"	"EE16-A2"	"9"	"BS(EE)"
"EL323"	"Analogue and Digital Communication - Lab"	"1"	"EE16B1"	"14"	"BS(EE)"
"EL323"	"Analogue and Digital Communication - Lab"	"1"	"EE16A1"	"12"	"BS(EE)"
					
19	"500132"	"Mansoor Ali"	"Lab Engineer"	"3"	
"CS214"	"Programming Fundamentals"	"3"	"EE-R"	"16"	"BS(EE)"
					
20	"4471"	"Muneeb Suhail"	"Lab Engineer"	"9"	
"CL210"	"Data Structures and Algorithms - Lab"	"1"	"EE17-B"	"25"	"BS(EE)"
"CL214"	"Programming Fundamentals - Lab"	"1"	"EE-R"	"16"	"BS(EE)"
"CL210"	"Data Structures and Algorithms - Lab"	"1"	"EE17-A"	"40"	"BS(EE)"
					
21	"5199"	"Nouman Shabbir"	"Lab Engineer"	"12"	
"EL426"	"Industrial Processes Control Lab"	"1"	"EE15-A1"	"17"	"BS(EE)"
"EL426"	"Industrial Processes Control Lab"	"1"	"EL15B1"	"12"	"BS(EE)"
"EL426"	"Industrial Processes Control Lab"	"1"	"EL15B2"	"12"	"BS(EE)"
"EL426"	"Industrial Processes Control Lab"	"1"	"EE15-A2"	"18"	"BS(EE)"
					
22	"4457"	"Usman Abbasi"	"Lab Engineer"	"12"	
"EL303"	"µP Interfacing and Programming Lab"	"1"	"EE16-A1"	"8"	"BS(EE)"
"EL303"	"µP Interfacing and Programming Lab"	"1"	"EE16B2"	"25"	"BS(EE)"
"EL303"	"µP Interfacing and Programming Lab"	"1"	"EE16A2"	"21"	"BS(EE)"
"EL303"	"µP Interfacing and Programming Lab"	"1"	"EE16B1"	"11"	"BS(EE)"
					
23	"4567"	"Waseemullah"	"Lab Engineer"	"12"	
"EL225"	"Electronic Devices and Circuits - Lab"	"1"	"EE17-B1"	"25"	"BS(EE)"
"EL225"	"Electronic Devices and Circuits - Lab"	"1"	"EE17-A1"	"16"	"BS(EE)"
"EL225"	"Electronic Devices and Circuits - Lab"	"1"	"EE17-A2"	"10"	"BS(EE)"
"EL115"	"Linear Circuit Analysis - Lab"	"1"	"EE-R"	"9"	"BS(EE)"
					
1	"3913"	"M.Tariq Rahim"	"Professor"	"9"	
"MT104"	"Linear Algebra"	"3"	"CS17-B"	"31"	"BS(CS)"
"MT207"	"Numerical Methods"	"3"	"CS14-A"	"12"	"BS(CS)"
"MT104"	"Linear Algebra"	"3"	"CS17-A"	"33"	"BS(CS)"
					
2	"3422"	"Hamid Khan"	"Associate Professor"	"6"	
"MT104"	"Linear Algebra"	"3"	"EE17B"	"30"	"BS(EE)"
"MT104"	"Linear Algebra"	"3"	"EE17A"	"27"	"BS(EE)"
					
3	"4332"	"Mubashir Qayyum"	"Assistant Professor"	"12"	
"MT119"	"Calculus and Analytical Geometry"	"3"	"CS18-B"	"29"	"BS(CS)"
"MT101"	"Calculus - I"	"3"	"CS-R"	"7"	"BS(CS)"
"MT119"	"Calculus and Analytical Geometry"	"3"	"CS18-A"	"35"	"BS(CS)"
"MT119"	"Calculus and Analytical Geometry"	"3"	"CS18-C"	"36"	"BS(CS)"
					
4		"Murtaza Ali"	"Assistant Professor"	"8"	
"MT206"	"Probability and Statistics"	"4"	"CS16-B"	"52"	"BS(CS)"
"MT206"	"Probability and Statistics"	"4"	"CS16-A"	"45"	"BS(CS)"
					
5	"5612"	"Abida Farid"	"Lecturer"	"12"	
"SL150"	"English Composition and Comprehension - Lab"	"1"	"CS18-A"	"33"	"BS(CS)"
"SL150"	"English Composition and Comprehension - Lab"	"1"	"CS18-B"	"29"	"BS(CS)"
"SL101"	"English Language Lab"	"1"	"CS-R"	"2"	"BS(CS)"
"SL150"	"English Composition and Comprehension - Lab"	"1"	"CS18-C"	"36"	"BS(CS)"
					
6	"5211"	"Ali Abas Khan"	"Lecturer"	"15"	
"NS110"	"Physics for Engineers"	"3"	"EE18-B"	"35"	"BS(EE)"
"NS110"	"Physics for Engineers"	"3"	"EE18-A"	"22"	"BS(EE)"
"NL110"	"Physics for Engineers Lab"	"1"	"EE18-B2"	"16"	"BS(EE)"
"NL110"	"Physics for Engineers Lab"	"1"	"EE18-A"	"22"	"BS(EE)"
"NL110"	"Physics for Engineers Lab"	"1"	"EE18-B1"	"21"	"BS(EE)"
					
7		"Inayat Ullah"	"Lecturer"	"3"	
"MT115"	"Calculus - II"	"3"	"CS-R"	"25"	"BS(CS)"
					
8	"500070"	"Maryam Ali Khan"	"Lecturer"	"9"	
"SS150"	"English Composition and Comprehension"	"2"	"CS18-B"	"29"	"BS(CS)"
"SS150"	"English Composition and Comprehension"	"2"	"CS18-C"	"36"	"BS(CS)"
"SS150"	"English Composition and Comprehension"	"2"	"CS18-A"	"33"	"BS(CS)"
"SS101"	"English Language"	"3"	"CS-R"	"2"	"BS(CS)"
					
9		"Mufti Nadeem Ahmad"	"Lecturer"	"6"	
"SS111"	"Islamic and Religious Studies"	"3"	"EE18-B"	"36"	"BS(CS),BS(EE)"
"SS111"	"Islamic and Religious Studies"	"3"	"EE18-A"	"22"	"BS(CS),BS(EE)"
					
10	"5534"	"Osama Sohrab"	"Lecturer"	"12"	
"MT117"	"Applied Calculus"	"3"	"EE18-B"	"42"	"BS(EE)"
"MT220"	"Complex Variables and Transforms"	"3"	"EE16A"	"31"	"BS(EE)"
"MT117"	"Applied Calculus"	"3"	"EE18-A"	"25"	"BS(EE)"
"MT220"	"Complex Variables and Transforms"	"3"	"EE16B"	"23"	"BS(EE)"
					
11	"00"	"Zia Muhammad"	"Lecturer"	"9"	
"SS123"	"Communication Skills"	"3"	"EE15A"	"43"	"BS(EE)"
"SS123"	"Communication Skills"	"3"	"EE15B"	"40"	"BS(EE)"
"SS101"	"English Language"	"3"	"EE18-A"	"21"	"BS(EE)"
					
1	"00"	"Muhammad Khan"	"Instructor"	"3"	
"CS422"	"Human Computer Interaction"	"3"	"CS15-A"	"45"	"BS(CS)"
					
0	"0000"	"Faisal Naeem"	"Research Fellow"	"3"	
"EL407"	"Wave Prop. and Antenna Th. Lab"	"1"	"EE15C"	"12"	"BS(EE)"
					
1		"Saif Ullah"	"Lecturer"	"6"	
"ME201"	"Applied Thermodynamics"	"3"	"EE17B"	"30"	"BS(EE)"
"ME201"	"Applied Thermodynamics"	"3"	"EE17A"	"25"	"BS(EE)"
					
1	"000"	"Gohar Ali Shah"	"Lecturer"	"3"	
"SS113"	"Pakistan Studies"	"3"	"CS18-C"	"45"	"BS(CS),BS(EE)"
					
2	"000"	"Hadia Anees"	"Lecturer"	"3"	
"SS101"	"English Language"	"3"	"EE18-B"	"36"	"BS(EE)"
					
3	"000"	"Muhammad Iqbal"	"Lecturer"	"6"	
"SS113"	"Pakistan Studies"	"3"	"CS18-B"	"48"	"BS(CS)"
"SS113"	"Pakistan Studies"	"3"	"CS18-A"	"38"	"BS(CS)"
